<?xml version="1.0" encoding="UTF-8"?>
<!DOCTYPE svg PUBLIC "-//W3C//DTD SVG 1.1//EN" "http://www.w3.org/Graphics/SVG/1.1/DTD/svg11.dtd">
<!-- Creator: CorelDRAW 2018 (64 Bit) -->
<svg xmlns="http://www.w3.org/2000/svg" xml:space="preserve" width="89.9582mm" height="23.8124mm" version="1.1" style="shape-rendering:geometricPrecision; text-rendering:geometricPrecision; image-rendering:optimizeQuality; fill-rule:evenodd; clip-rule:evenodd"
viewBox="0 0 8995.82 2381.24"
 xmlns:xlink="http://www.w3.org/1999/xlink">
 <defs>
  <style type="text/css">
   <![CDATA[
    .fil3 {fill:none}
    .fil0 {fill:#0091A5}
    .fil1 {fill:#1D1D1B}
    .fil4 {fill:#C6E5EF}
    .fil2 {fill:#E5720A}
   ]]>
  </style>
 </defs>
 <g id="Capa_x0020_1">
  <metadata id="CorelCorpID_0Corel-Layer"/>
  <g id="_1488174664944">
   <rect class="fil0" x="8568.92" y="473.53" width="141.51" height="1130.3"/>
   <path class="fil0" d="M8449 1603.83l-141.51 0 0 -78.59c-55.13,62.54 -131.51,101.27 -215.94,101.27 -168.04,0 -304.26,-153.42 -304.26,-342.67 0,-189.25 136.22,-342.67 304.26,-342.67 84.43,0 160.81,38.73 215.94,101.27l0 -85.02 141.51 0 0 646.41zm-322 -532.68c-99.68,0 -180.48,94.56 -180.48,211.21 0,116.66 80.8,211.22 180.48,211.22 99.68,0 180.49,-94.56 180.49,-211.22 0,-116.65 -80.81,-211.21 -180.49,-211.21z"/>
   <rect class="fil0" x="7255.85" y="957.42" width="141.51" height="646.4"/>
   <polygon class="fil0" points="7663.22,1603.83 7521.71,1603.83 7521.71,1085.19 7456.43,1085.19 7456.43,957.42 7521.71,957.42 7521.71,721.1 7663.22,721.1 7663.22,957.42 7774,957.42 7774,1085.19 7663.22,1085.19 "/>
   <polygon class="fil0" points="7054,567.09 7210.37,569.11 6754.05,1682.15 6297.73,569.11 6454.11,567.09 6754.05,1298.71 "/>
   <rect class="fil1" x="4121.17" y="450.84" width="141.51" height="1130.3"/>
   <path class="fil1" d="M5012.09 1581.14l-141.51 0 0 -78.59c-55.13,62.54 -131.51,101.28 -215.94,101.28 -168.04,0 -304.27,-153.42 -304.27,-342.68 0,-189.25 136.23,-342.67 304.27,-342.67 84.43,0 160.81,38.74 215.94,101.27l0 -85.01 141.51 0 0 646.4zm-322 -532.68c-99.68,0 -180.48,94.56 -180.48,211.22 0,116.65 80.8,211.21 180.48,211.21 99.68,0 180.49,-94.56 180.49,-211.21 0,-116.66 -80.81,-211.22 -180.49,-211.22z"/>
   <circle class="fil2" cx="7326.84" cy="680.08" r="98.59"/>
   <path class="fil1" d="M5994.16 918.48c-176.2,0 -319.04,153.42 -319.04,342.67 0,189.26 167.38,342.68 319.04,342.68 151.66,0 250.24,-69.8 301.53,-185.34l-119.41 -73.65c-25.88,79.56 -97.92,126.05 -182.12,126.05 -84.21,0 -166.82,-79.4 -178.81,-182.45 165.61,0 317.83,0 483.44,0l1.01 -27.29c7.04,-189.12 -129.44,-342.67 -305.64,-342.67zm-165.28 256.23c27.95,-74.34 91.43,-126.25 165.28,-126.25 73.85,0 123.93,51.91 151.87,126.25l-317.15 0z"/>
   <ellipse class="fil3" cx="4690.09" cy="1259.68" rx="180.48" ry="211.21"/>
   <path class="fil1" d="M5458.89 918.48c-198.34,0 -359.12,153.42 -359.12,342.67 0,189.26 160.78,342.68 359.12,342.68 64.42,0 124.87,-16.21 177.15,-44.55l0 -196.16c-34.83,64.32 -101.1,107.77 -177.15,107.77 -112.21,0 -203.16,-94.56 -203.16,-211.21 0,-116.66 90.95,-211.22 203.16,-211.22 76.05,0 142.32,43.45 177.15,107.77l0 -193.2c-52.28,-28.35 -112.73,-44.55 -177.15,-44.55z"/>
   <path class="fil1" d="M3867.48 1182.5c-0.66,-75.29 -61.71,-137.37 -137.37,-137.37 -75.65,0 -137.36,61.51 -137.36,137.37l0 398.64 -141.52 0 0 -646.4 141.52 0 0 62.37c172.28,-152.84 427.57,-105.5 416.25,185.39l0 398.64 -141.52 0 0 -398.64z"/>
   <polygon class="fil1" points="2780.03,1067.93 2780.03,926.41 2780.03,527.61 2812.54,527.61 2921.54,527.61 3383.05,527.61 3383.05,669.13 2921.54,669.13 2921.54,926.41 3326.9,926.41 3326.9,1067.93 2921.54,1067.93 2921.54,1439.63 3383.05,1439.63 3383.05,1581.14 2780.03,1581.14 "/>
   <path class="fil0" d="M1307.31 1467.6l648.98 -374.69c26.21,-15.13 48.62,-46.42 48.62,-76.69l0 -720.6c0,-73.79 60.19,-133.98 133.98,-133.98 73.79,0 133.98,60.19 133.98,133.98l0 846.57c0,49.2 -24.38,91.43 -66.99,116.03l-869.48 502c-21.31,12.3 -44.15,18.45 -66.99,18.45 -22.85,0 -45.69,-6.15 -66.99,-18.45l-533.75 -308.16 264.75 -156.56 298.45 172.31c21.78,12.57 53.66,12.36 75.44,-0.21zm-905.01 -169.33l-69.37 -40.05 -1.69 -0.99 -0.29 -0.17 -0.41 -0.25 -1.29 -0.78 -0.76 -0.48 -0.96 -0.61 -0.91 -0.58 -0.34 -0.22 -1.12 -0.73 -0.23 -0.15 -0.99 -0.67 -0.66 -0.45 -0.21 -0.15 -1.57 -1.1 -0.07 -0.04 -1.49 -1.08 -0.33 -0.24 -0.24 -0.18 -1.42 -1.07 -0.34 -0.25 -1.23 -0.95 -0.63 -0.5 -0.85 -0.67 -0.87 -0.71 -0.1 -0.08 -1.32 -1.09 -0.14 -0.12 -1.43 -1.22 -0.11 -0.09 -1.3 -1.15 -0.06 -0.05 -1.11 -1 -0.33 -0.31 -0.97 -0.9 -0.59 -0.55 -0.89 -0.85 -0.16 -0.15 -1.03 -1.01 -0.3 -0.3 -1.24 -1.24 -0.07 -0.08 -1.28 -1.33 -1.03 -1.1 -0.33 -0.35 -0.98 -1.09 -0.25 -0.26 -1 -1.14 -0.32 -0.37 -0.96 -1.11 -0.07 -0.08 -0.95 -1.14 -0.23 -0.27 -0.35 -0.44c-1.02,-1.25 -2.02,-2.52 -2.99,-3.81l-0.08 -0.11 -1.02 -1.36 -0.09 -0.13 -0.93 -1.29 -0.28 -0.39 -0.82 -1.18 -0.05 -0.07 -0.88 -1.29 -0.15 -0.22 -0.11 -0.18c-1.61,-2.42 -3.14,-4.9 -4.59,-7.43l-0.24 -0.43c-1.74,-3.08 -3.36,-6.23 -4.84,-9.45l-0.03 -0.06 -0.7 -1.56 -0.1 -0.23c-4.66,-10.56 -7.93,-21.83 -9.71,-33.65l0 0.01c-1.04,-6.93 -1.58,-14.04 -1.58,-21.31l0 -846.57c0,-73.79 60.19,-133.98 133.98,-133.98 73.79,0 133.98,60.19 133.98,133.98l0 98.56 0 622.04c0,30.26 22.41,61.56 48.62,76.69l84.53 48.8 -264.75 156.56z"/>
   <path class="fil4" d="M535.48 702.68l-1.58 -308.5 533.76 -308.17c63.9,-36.9 146.12,-14.87 183.02,49.04 36.9,63.91 14.87,146.12 -49.04,183.02l-666.16 384.61zm-133.64 595.86l658.54 -389.42c63.52,-37.56 145.96,-16.39 183.52,47.13 37.56,63.52 16.39,145.96 -47.13,183.53l-528.56 312.55c-22.41,126.89 -12.85,168.85 104.3,236.49l498.48 287.79 666.16 -384.61c63.91,-36.9 146.12,-14.87 183.02,49.04 36.9,63.91 14.87,146.12 -49.04,183.02l-733.15 423.29c-42.61,24.6 -91.38,24.6 -133.98,0l-869.49 -502c-42.6,-24.6 -66.99,-66.83 -66.99,-116.03l0 -465.83c6.03,39.98 29.1,73.77 65.41,94.73l68.91 40.32z"/>
  </g>
 </g>
</svg>
